…
  - **How many aisles are there, and which aisles are the most items
    ordered from?**

This dataset contains info on both the user and the products, allowing
us to identify trends in either user behavior or product specifications.
Across the 21 departments, there are 134 aisles and 49688 unique
products to choose from.

``` r
instacart %>% 
    count(aisle) %>% 
    arrange(desc(n))
```

    ## # A tibble: 134 x 2
    ##    aisle                              n
    ##    <chr>                          <int>
    ##  1 fresh vegetables              150609
    ##  2 fresh fruits                  150473
    ##  3 packaged vegetables fruits     78493
    ##  4 yogurt                         55240
    ##  5 packaged cheese                41699
    ##  6 water seltzer sparkling water  36617
    ##  7 milk                           32644
    ##  8 chips pretzels                 31269
    ##  9 soy lactosefree                26240
    ## 10 bread                          23635
    ## # … with 124 more rows
…
ny_noaa_df %>% 
  count(snow) %>%
  drop_na() %>% 
  arrange(desc(n))
```

    ## # A tibble: 281 x 2
    ##     snow       n
    ##    <int>   <int>
    ##  1     0 2008508
    ##  2    25   31022
    ##  3    13   23095
    ##  4    51   18274
    ##  5    76   10173
    ##  6     8    9962
    ##  7     5    9748
    ##  8    38    9197
    ##  9     3    8790
    ## 10   102    6552
    ## # … with 271 more rows
…
